SDS814X_HD_CSV_C1_40.csv

Record Length,Analog:10000
Sample Interval,5.000000E-04
Vertical Units,V,
Vertical Scale,+1.000000E-03
Vertical Offset,-7.500000E-04
Horizontal Units,s
Horizontal Scale,+5.000000E-01
Model,SDS814X HD
Serial Number,SDS08A0Q808352
Software Version,3.8.12.1.1.3.8
Source,CH1
Second,Value
-2.5031000000E+00,+9.750000E-04
-2.5026000000E+00,+9.250000E-04
-2.5021000000E+00,+7.270834E-04
-2.5016000000E+00,+7.229167E-04
-2.5011000000E+00,+4.958333E-04
-2.5006000000E+00,+7.520833E-04
-2.5001000000E+00,+1.058333E-03
-2.4996000000E+00,+7.437500E-04
-2.4991000000E+00,+4.604167E-04
-2.4986000000E+00,+5.083333E-04
-2.4981000000E+00,+4.062500E-04
-2.4976000000E+00,+7.333333E-04
-2.4971000000E+00,+8.562500E-04
-2.4966000000E+00,+5.937500E-04
-2.4961000000E+00,+1.083333E-04
-2.4956000000E+00,+2.500000E-04
-2.4951000000E+00,+3.687500E-04
-2.4946000000E+00,+3.520833E-04
-2.4941000000E+00,+1.291667E-04
-2.4936000000E+00,+4.250000E-04
-2.4931000000E+00,+2.458333E-04
-2.4926000000E+00,+2.833333E-04
-2.4921000000E+00,+1.458333E-05
-2.4916000000E+00,+5.750000E-04
-2.4911000000E+00,-3.208334E-04
-2.4906000000E+00,-4.166667E-05
-2.4901000000E+00,-4.166667E-05
-2.4896000000E+00,-7.708334E-05
-2.4891000000E+00,+8.333333E-05
-2.4886000000E+00,+2.312500E-04
-2.4881000000E+00,-4.583333E-05
-2.4876000000E+00,-2.520834E-04
-2.4871000000E+00,-7.500000E-05
-2.4866000000E+00,-2.270833E-04
-2.4861000000E+00,-1.291667E-04
-2.4856000000E+00,+9.583333E-05
-2.4851000000E+00,-2.708333E-04
-2.4846000000E+00,-4.166667E-04
-2.4841000000E+00,-2.916667E-04
-2.4836000000E+00,-3.645833E-04
-2.4831000000E+00,-3.250000E-04
-2.4826000000E+00,-3.604167E-04
-2.4821000000E+00,-7.312500E-04
-2.4816000000E+00,-6.291667E-04
-2.4811000000E+00,-9.604167E-04
-2.4806000000E+00,-4.583334E-04
-2.4801000000E+00,-5.875000E-04
-2.4796000000E+00,-8.395833E-04
-2.4791000000E+00,-1.033333E-03
-2.4786000000E+00,-5.708333E-04
-2.4781000000E+00,-8.666667E-04
-2.4776000000E+00,-4.708333E-04
-2.4771000000E+00,-9.125000E-04
-2.4766000000E+00,-9.437500E-04
-2.4761000000E+00,-1.129167E-03
-2.4756000000E+00,-6.062500E-04
-2.4751000000E+00,-7.229167E-04
-2.4746000000E+00,-8.958334E-04
-2.4741000000E+00,-1.260417E-03
-2.4736000000E+00,-1.220833E-03
-2.4731000000E+00,-9.666667E-04
-2.4726000000E+00,-1.154167E-03
-2.4721000000E+00,-7.916667E-04
-2.4716000000E+00,-7.604167E-04
-2.4711000000E+00,-1.047917E-03
-2.4706000000E+00,-1.175000E-03
-2.4701000000E+00,-1.341667E-03
-2.4696000000E+00,-1.066667E-03
-2.4691000000E+00,-1.006250E-03
-2.4686000000E+00,-8.666667E-04
-2.4681000000E+00,-1.252083E-03
-2.4676000000E+00,-1.216667E-03
-2.4671000000E+00,-9.145833E-04
-2.4666000000E+00,-9.729167E-04
-2.4661000000E+00,-1.139583E-03
-2.4656000000E+00,-1.068750E-03
-2.4651000000E+00,-1.235417E-03
-2.4646000000E+00,-1.168750E-03
-2.4641000000E+00,-1.158333E-03
-2.4636000000E+00,-1.133333E-03
-2.4631000000E+00,-1.018750E-03
-2.4626000000E+00,-1.018750E-03
-2.4621000000E+00,-1.441667E-03
-2.4616000000E+00,-1.364583E-03
-2.4611000000E+00,-9.750000E-04
-2.4606000000E+00,-7.604167E-04
-2.4601000000E+00,-9.541667E-04
-2.4596000000E+00,-1.020833E-03
-2.4591000000E+00,-1.125000E-03
-2.4586000000E+00,-9.958333E-04
-2.4581000000E+00,-7.583334E-04
-2.4576000000E+00,-6.562500E-04
-2.4571000000E+00,-1.110417E-03
-2.4566000000E+00,-1.079167E-03
-2.4561000000E+00,-1.062500E-03
-2.4556000000E+00,-7.166667E-04
-2.4551000000E+00,-8.750000E-04
-2.4546000000E+00,-6.020833E-04
-2.4541000000E+00,-7.083333E-04
-2.4536000000E+00,-8.062500E-04
-2.4531000000E+00,-8.333334E-04
-2.4526000000E+00,-5.354166E-04
-2.4521000000E+00,-5.041667E-04
-2.4516000000E+00,-5.979167E-04
-2.4511000000E+00,-5.854167E-04
-2.4506000000E+00,-6.333333E-04
-2.4501000000E+00,-4.062500E-04
-2.4496000000E+00,-3.125000E-04
-2.4491000000E+00,-2.020833E-04
-2.4486000000E+00,-5.916667E-04
-2.4481000000E+00,-5.458333E-04
-2.4476000000E+00,-1.479167E-04
-2.4471000000E+00,+2.145833E-04
-2.4466000000E+00,-6.875000E-05
-2.4461000000E+00,-3.250000E-04
-2.4456000000E+00,-8.750000E-05
-2.4451000000E+00,+2.812500E-04
-2.4446000000E+00,-1.333333E-04
-2.4441000000E+00,+1.625000E-04
-2.4436000000E+00,+2.104167E-04
-2.4431000000E+00,+5.208333E-05
-2.4426000000E+00,-4.791667E-05
-2.4421000000E+00,+1.145833E-04
-2.4416000000E+00,+1.666667E-04
-2.4411000000E+00,+2.729167E-04
-2.4406000000E+00,+5.000000E-04
-2.4401000000E+00,+1.312500E-04
-2.4396000000E+00,+4.333333E-04
-2.4391000000E+00,+2.125000E-04
-2.4386000000E+00,+7.354167E-04
-2.4381000000E+00,+6.333333E-04
-2.4376000000E+00,+2.729167E-04
-2.4371000000E+00,+2.604167E-04
-2.4366000000E+00,+3.916667E-04
-2.4361000000E+00,+7.479167E-04
-2.4356000000E+00,+7.000000E-04
-2.4351000000E+00,+6.812500E-04
-2.4346000000E+00,+6.437500E-04
-2.4341000000E+00,+5.000000E-04
-2.4336000000E+00,+8.791666E-04
-2.4331000000E+00,+7.166667E-04
-2.4326000000E+00,+7.770833E-04
-2.4321000000E+00,+1.014583E-03
-2.4316000000E+00,+3.958333E-04
-2.4311000000E+00,+5.000000E-04
-2.4306000000E+00,+7.333333E-04
-2.4301000000E+00,+8.625000E-04
-2.4296000000E+00,+8.666667E-04
-2.4291000000E+00,+7.770833E-04
-2.4286000000E+00,+3.666667E-04
-2.4281000000E+00,+8.020833E-04
-2.4276000000E+00,+1.008333E-03
-2.4271000000E+00,+1.060417E-03
-2.4266000000E+00,+9.479166E-04
-2.4261000000E+00,+8.041667E-04
-2.4256000000E+00,+6.395833E-04
-2.4251000000E+00,+9.104167E-04
-2.4246000000E+00,+8.500000E-04
-2.4241000000E+00,+8.791666E-04
-2.4236000000E+00,+8.729167E-04
-2.4231000000E+00,+8.041667E-04
-2.4226000000E+00,+7.270834E-04
-2.4221000000E+00,+7.875000E-04
-2.4216000000E+00,+1.287500E-03
-2.4211000000E+00,+1.068750E-03
-2.4206000000E+00,+7.187500E-04
-2.4201000000E+00,+7.854167E-04
-2.4196000000E+00,+6.750000E-04
-2.4191000000E+00,+9.729167E-04
-2.4186000000E+00,+1.129167E-03
-2.4181000000E+00,+7.312500E-04
-2.4176000000E+00,+5.562500E-04
-2.4171000000E+00,+5.854167E-04
-2.4166000000E+00,+6.395833E-04
-2.4161000000E+00,+8.645834E-04
-2.4156000000E+00,+7.062500E-04
-2.4151000000E+00,+7.062500E-04
-2.4146000000E+00,+1.479167E-04
-2.4141000000E+00,+4.791667E-04
-2.4136000000E+00,+5.750000E-04
-2.4131000000E+00,+8.708333E-04
-2.4126000000E+00,+6.354167E-04
-2.4121000000E+00,+4.458333E-04
-2.4116000000E+00,-6.875000E-05
-2.4111000000E+00,+4.625000E-04
-2.4106000000E+00,+2.312500E-04
-2.4101000000E+00,+5.666667E-04
-2.4096000000E+00,+6.250000E-04
-2.4091000000E+00,+5.208333E-05
-2.4086000000E+00,+8.333333E-05
-2.4081000000E+00,+1.833333E-04
-2.4076000000E+00,+2.500000E-04
-2.4071000000E+00,+1.625000E-04
-2.4066000000E+00,+1.250000E-05
-2.4061000000E+00,-7.500000E-05
-2.4056000000E+00,-1.979167E-04
-2.4051000000E+00,+1.125000E-04
-2.4046000000E+00,+7.291666E-05
-2.4041000000E+00,-5.000000E-05
-2.4036000000E+00,-2.562500E-04
-2.4031000000E+00,-2.083333E-04
-2.4026000000E+00,-4.375000E-04
-2.4021000000E+00,-1.062500E-04
-2.4016000000E+00,-1.041667E-04
-2.4011000000E+00,-1.770833E-04
-2.4006000000E+00,-5.291667E-04
-2.4001000000E+00,-5.145833E-04
-2.3996000000E+00,-1.187500E-04
-2.3991000000E+00,-1.854167E-04
-2.3986000000E+00,-3.270833E-04
-2.3981000000E+00,-5.145833E-04
-2.3976000000E+00,-6.458333E-04
-2.3971000000E+00,-6.208334E-04
-2.3966000000E+00,-4.291667E-04
-2.3961000000E+00,-4.854167E-04
-2.3956000000E+00,-6.229167E-04
-2.3951000000E+00,-7.916667E-04
-2.3946000000E+00,-7.229167E-04
-2.3941000000E+00,-8.791667E-04
-2.3936000000E+00,-6.895834E-04
-2.3931000000E+00,-5.062500E-04
-2.3926000000E+00,-8.062500E-04
-2.3921000000E+00,-1.045833E-03
-2.3916000000E+00,-9.604167E-04
-2.3911000000E+00,-8.541667E-04
-2.3906000000E+00,-5.604167E-04
-2.3901000000E+00,-8.562500E-04
-2.3896000000E+00,-1.245833E-03
-2.3891000000E+00,-1.175000E-03
-2.3886000000E+00,-7.187500E-04
-2.3881000000E+00,-1.002083E-03
-2.3876000000E+00,-1.002083E-03
-2.3871000000E+00,-1.081250E-03
-2.3866000000E+00,-1.260417E-03
-2.3861000000E+00,-1.216667E-03
-2.3856000000E+00,-1.006250E-03
-2.3851000000E+00,-9.458333E-04
-2.3846000000E+00,-1.091667E-03
-2.3841000000E+00,-1.012500E-03
-2.3836000000E+00,-1.222917E-03
-2.3831000000E+00,-1.252083E-03
-2.3826000000E+00,-9.708334E-04
-2.3821000000E+00,-1.041667E-03
-2.3816000000E+00,-1.087500E-03
-2.3811000000E+00,-1.229167E-03
-2.3806000000E+00,-1.206250E-03
-2.3801000000E+00,-9.250000E-04
-2.3796000000E+00,-1.035417E-03
-2.3791000000E+00,-8.250000E-04
-2.3786000000E+00,-1.052083E-03
-2.3781000000E+00,-1.318750E-03
-2.3776000000E+00,-1.312500E-03
-2.3771000000E+00,-1.016667E-03
-2.3766000000E+00,-8.895833E-04
-2.3761000000E+00,-1.016667E-03
-2.3756000000E+00,-9.791667E-04
-2.3751000000E+00,-9.937501E-04
-2.3746000000E+00,-1.118750E-03
-2.3741000000E+00,-9.729167E-04
-2.3736000000E+00,-9.791667E-04
-2.3731000000E+00,-8.937500E-04
-2.3726000000E+00,-9.875001E-04
-2.3721000000E+00,-1.162500E-03
-2.3716000000E+00,-8.770833E-04
-2.3711000000E+00,-5.145833E-04
-2.3706000000E+00,-6.104167E-04
-2.3701000000E+00,-9.937501E-04
-2.3696000000E+00,-9.145833E-04
-2.3691000000E+00,-7.437500E-04
-2.3686000000E+00,-6.333333E-04
-2.3681000000E+00,-3.854167E-04
-2.3676000000E+00,-4.583334E-04
-2.3671000000E+00,-5.000000E-04
-2.3666000000E+00,-5.916667E-04
-2.3661000000E+00,-7.541667E-04
-2.3656000000E+00,+7.291666E-05
-2.3651000000E+00,-3.250000E-04
-2.3646000000E+00,-4.125000E-04
-2.3641000000E+00,-4.729167E-04
-2.3636000000E+00,-4.333333E-04
-2.3631000000E+00,-1.479167E-04
-2.3626000000E+00,-2.291667E-05
-2.3621000000E+00,-9.583333E-05
-2.3616000000E+00,-1.937500E-04
-2.3611000000E+00,-4.416667E-04
-2.3606000000E+00,+3.750000E-05
-2.3601000000E+00,+1.062500E-04
-2.3596000000E+00,+2.291667E-04
-2.3591000000E+00,+1.791667E-04
-2.3586000000E+00,-1.208333E-04
-2.3581000000E+00,-1.770833E-04
-2.3576000000E+00,+3.250000E-04
-2.3571000000E+00,+4.937500E-04
-2.3566000000E+00,+4.854167E-04
-2.3561000000E+00,+7.500000E-05
-2.3556000000E+00,+3.145833E-04
-2.3551000000E+00,+3.229167E-04
-2.3546000000E+00,+4.416667E-04
-2.3541000000E+00,+6.729166E-04
-2.3536000000E+00,+6.333333E-04
-2.3531000000E+00,+3.187500E-04
-2.3526000000E+00,+4.145833E-04
-2.3521000000E+00,+4.187500E-04
-2.3516000000E+00,+5.062500E-04
-2.3511000000E+00,+8.520833E-04
-2.3506000000E+00,+6.375000E-04
-2.3501000000E+00,+4.791667E-04
-2.3496000000E+00,+4.979167E-04
-2.3491000000E+00,+7.500000E-04
-2.3486000000E+00,+8.791666E-04
-2.3481000000E+00,+6.770833E-04
-2.3476000000E+00,+7.437500E-04
-2.3471000000E+00,+6.187500E-04
-2.3466000000E+00,+8.833333E-04
-2.3461000000E+00,+9.750000E-04
-2.3456000000E+00,+9.041667E-04
-2.3451000000E+00,+8.416667E-04
-2.3446000000E+00,+6.104167E-04
-2.3441000000E+00,+7.479167E-04
-2.3436000000E+00,+5.270833E-04
-2.3431000000E+00,+1.106250E-03
-2.3426000000E+00,+8.437500E-04
-2.3421000000E+00,+7.875000E-04
-2.3416000000E+00,+8.062500E-04
-2.3411000000E+00,+7.937500E-04
-2.3406000000E+00,+5.312500E-04
-2.3401000000E+00,+1.189583E-03
-2.3396000000E+00,+1.035417E-03
-2.3391000000E+00,+6.854167E-04
-2.3386000000E+00,+6.541667E-04
-2.3381000000E+00,+6.708333E-04
-2.3376000000E+00,+8.666667E-04
-2.3371000000E+00,+8.708333E-04
-2.3366000000E+00,+9.562500E-04
-2.3361000000E+00,+8.270834E-04
-2.3356000000E+00,+5.354166E-04
-2.3351000000E+00,+8.187500E-04
-2.3346000000E+00,+8.104166E-04
-2.3341000000E+00,+1.360417E-03
-2.3336000000E+00,+6.125000E-04
-2.3331000000E+00,+4.541667E-04
-2.3326000000E+00,+7.500000E-04
-2.3321000000E+00,+7.041667E-04
-2.3316000000E+00,+7.333333E-04
-2.3311000000E+00,+8.000000E-04
-2.3306000000E+00,+2.812500E-04
-2.3301000000E+00,+4.395833E-04
-2.3296000000E+00,+7.166667E-04
-2.3291000000E+00,+5.937500E-04
-2.3286000000E+00,+6.270834E-04
-2.3281000000E+00,+4.625000E-04
-2.3276000000E+00,+4.500000E-04
-2.3271000000E+00,+3.125000E-04
-2.3266000000E+00,+3.979167E-04
-2.3261000000E+00,+4.875000E-04
-2.3256000000E+00,+3.562500E-04
-2.3251000000E+00,+3.937500E-04
-2.3246000000E+00,+1.208333E-04
-2.3241000000E+00,+1.020833E-04
-2.3236000000E+00,+4.604167E-04
-2.3231000000E+00,+3.395833E-04
-2.3226000000E+00,+2.916667E-04
-2.3221000000E+00,-7.291667E-05
-2.3216000000E+00,+5.208333E-05
-2.3211000000E+00,-3.541667E-05
-2.3206000000E+00,+1.208333E-04
-2.3201000000E+00,-4.583333E-05
-2.3196000000E+00,-1.291667E-04
-2.3191000000E+00,-4.145833E-04
-2.3186000000E+00,-3.062500E-04
-2.3181000000E+00,-2.645833E-04
-2.3176000000E+00,-3.375000E-04
-2.3171000000E+00,-4.312500E-04
-2.3166000000E+00,-3.562500E-04
-2.3161000000E+00,-4.916667E-04
-2.3156000000E+00,-5.500000E-04
-2.3151000000E+00,-2.520834E-04
-2.3146000000E+00,-4.125000E-04
-2.3141000000E+00,-2.708333E-04
-2.3136000000E+00,-7.145833E-04
-2.3131000000E+00,-5.604167E-04
-2.3126000000E+00,-6.354167E-04
-2.3121000000E+00,-5.083333E-04
-2.3116000000E+00,-4.375000E-04
-2.3111000000E+00,-4.520833E-04
-2.3106000000E+00,-9.770833E-04
-2.3101000000E+00,-9.875001E-04
-2.3096000000E+00,-7.812500E-04
-2.3091000000E+00,-8.541667E-04
-2.3086000000E+00,-7.583334E-04
-2.3081000000E+00,-8.937500E-04
-2.3076000000E+00,-9.291667E-04
-2.3071000000E+00,-8.395833E-04
-2.3066000000E+00,-7.875000E-04
-2.3061000000E+00,-7.916667E-04
-2.3056000000E+00,-9.708334E-04
-2.3051000000E+00,-1.164583E-03
-2.3046000000E+00,-8.062500E-04
-2.3041000000E+00,-9.541667E-04
-2.3036000000E+00,-7.541667E-04
-2.3031000000E+00,-1.000000E-03
-2.3026000000E+00,-1.152083E-03
-2.3021000000E+00,-1.279167E-03
-2.3016000000E+00,-1.212500E-03
-2.3011000000E+00,-8.458333E-04
-2.3006000000E+00,-1.087500E-03
-2.3001000000E+00,-6.875000E-04
-2.2996000000E+00,-1.439583E-03
-2.2991000000E+00,-1.308333E-03
-2.2986000000E+00,-1.018750E-03
-2.2981000000E+00,-7.479167E-04
-2.2976000000E+00,-1.133333E-03
-2.2971000000E+00,-1.225000E-03
-2.2966000000E+00,-1.406250E-03
-2.2961000000E+00,-1.152083E-03
-2.2956000000E+00,-1.120833E-03
-2.2951000000E+00,-8.958334E-04
-2.2946000000E+00,-9.895833E-04
-2.2941000000E+00,-1.018750E-03
-2.2936000000E+00,-1.418750E-03
-2.2931000000E+00,-1.087500E-03
-2.2926000000E+00,-9.770833E-04
-2.2921000000E+00,-7.833333E-04
-2.2916000000E+00,-9.125000E-04
-2.2911000000E+00,-1.222917E-03
-2.2906000000E+00,-1.137500E-03
-2.2901000000E+00,-8.125000E-04
-2.2896000000E+00,-5.770833E-04
-2.2891000000E+00,-6.812500E-04
-2.2886000000E+00,-8.291667E-04
-2.2881000000E+00,-1.077083E-03
-2.2876000000E+00,-8.979167E-04
-2.2871000000E+00,-8.229167E-04
-2.2866000000E+00,-6.395833E-04
-2.2861000000E+00,-7.395833E-04
-2.2856000000E+00,-8.666667E-04
-2.2851000000E+00,-9.062500E-04
-2.2846000000E+00,-7.166667E-04
-2.2841000000E+00,-4.979167E-04
-2.2836000000E+00,-5.708333E-04
-2.2831000000E+00,-3.479167E-04
-2.2826000000E+00,-7.645834E-04
-2.2821000000E+00,-6.062500E-04
-2.2816000000E+00,-5.187500E-04
-2.2811000000E+00,-1.979167E-04
-2.2806000000E+00,-3.270833E-04
-2.2801000000E+00,-5.854167E-04
-2.2796000000E+00,-5.312500E-04
-2.2791000000E+00,-1.583333E-04
-2.2786000000E+00,-1.125000E-04
-2.2781000000E+00,-1.395833E-04
-2.2776000000E+00,+5.416667E-05
-2.2771000000E+00,-2.166667E-04
-2.2766000000E+00,-6.875000E-05
-2.2761000000E+00,-5.416667E-05
-2.2756000000E+00,+1.229167E-04
-2.2751000000E+00,+3.458333E-04
-2.2746000000E+00,-8.750000E-05
-2.2741000000E+00,+5.208333E-05
-2.2736000000E+00,+1.750000E-04
-2.2731000000E+00,+6.354167E-04
-2.2726000000E+00,+2.395833E-04
-2.2721000000E+00,+5.854167E-04
-2.2716000000E+00,+4.166667E-04
-2.2711000000E+00,+4.666667E-04
-2.2706000000E+00,+2.833333E-04
-2.2701000000E+00,+5.666667E-04
-2.2696000000E+00,+6.583334E-04
-2.2691000000E+00,+5.395833E-04
-2.2686000000E+00,+4.708333E-04
-2.2681000000E+00,+6.437500E-04
-2.2676000000E+00,+4.625000E-04
-2.2671000000E+00,+5.854167E-04
-2.2666000000E+00,+7.666667E-04
-2.2661000000E+00,+6.229167E-04
-2.2656000000E+00,+5.958333E-04
-2.2651000000E+00,+5.583334E-04
-2.2646000000E+00,+7.083333E-04
-2.2641000000E+00,+8.041667E-04
-2.2636000000E+00,+8.541667E-04
-2.2631000000E+00,+7.333333E-04
-2.2626000000E+00,+6.500000E-04
-2.2621000000E+00,+5.437500E-04
-2.2616000000E+00,+1.127083E-03
-2.2611000000E+00,+9.729167E-04
-2.2606000000E+00,+5.791667E-04
-2.2601000000E+00,+5.687500E-04
-2.2596000000E+00,+8.270834E-04
-2.2591000000E+00,+8.083333E-04
-2.2586000000E+00,+9.375000E-04
-2.2581000000E+00,+7.562500E-04
-2.2576000000E+00,+9.041667E-04
-2.2571000000E+00,+5.520834E-04
-2.2566000000E+00,+6.416666E-04
-2.2561000000E+00,+9.687500E-04
-2.2556000000E+00,+9.937501E-04
-2.2551000000E+00,+1.266667E-03
-2.2546000000E+00,+7.541667E-04
-2.2541000000E+00,+2.666667E-04
-2.2536000000E+00,+6.104167E-04
-2.2531000000E+00,+9.812500E-04
-2.2526000000E+00,+7.479167E-04
-2.2521000000E+00,+9.083333E-04
-2.2516000000E+00,+8.791666E-04
-2.2511000000E+00,+9.333334E-04
-2.2506000000E+00,+1.068750E-03
-2.2501000000E+00,+8.854167E-04
-2.2496000000E+00,+6.229167E-04
-2.2491000000E+00,+8.437500E-04
-2.2486000000E+00,+6.020833E-04
-2.2481000000E+00,+5.854167E-04
-2.2476000000E+00,+7.770833E-04
-2.2471000000E+00,+7.645834E-04
-2.2466000000E+00,+7.625000E-04
-2.2461000000E+00,+6.062500E-04
-2.2456000000E+00,+6.395833E-04
-2.2451000000E+00,+3.854167E-04
-2.2446000000E+00,+6.729166E-04
-2.2441000000E+00,+7.437500E-04
-2.2436000000E+00,+5.666667E-04
-2.2431000000E+00,+1.833333E-04
-2.2426000000E+00,+2.479167E-04
-2.2421000000E+00,+4.979167E-04
-2.2416000000E+00,+8.520833E-04
-2.2411000000E+00,+4.020833E-04
-2.2406000000E+00,+1.687500E-04
-2.2401000000E+00,+1.458333E-05
-2.2396000000E+00,+2.583333E-04
-2.2391000000E+00,+1.583333E-04
-2.2386000000E+00,+1.750000E-04
-2.2381000000E+00,+9.166667E-05
-2.2376000000E+00,+4.375000E-05
-2.2371000000E+00,-1.895833E-04
-2.2366000000E+00,-5.041667E-04
-2.2361000000E+00,-1.979167E-04
-2.2356000000E+00,-1.041667E-05
-2.2351000000E+00,-1.166667E-04
-2.2346000000E+00,-3.770833E-04
-2.2341000000E+00,-3.666667E-04
-2.2336000000E+00,-1.020833E-04
-2.2331000000E+00,-7.083334E-05
-2.2326000000E+00,+1.416667E-04
-2.2321000000E+00,-6.041666E-04
-2.2316000000E+00,-8.541667E-04
-2.2311000000E+00,-4.416667E-04
-2.2306000000E+00,-2.083333E-04
-2.2301000000E+00,-4.104167E-04
-2.2296000000E+00,-4.854167E-04
-2.2291000000E+00,-4.458333E-04
-2.2286000000E+00,-7.187500E-04
-2.2281000000E+00,-5.041667E-04
-2.2276000000E+00,-4.291667E-04
-2.2271000000E+00,-6.250000E-04
-2.2266000000E+00,-9.000000E-04
-2.2261000000E+00,-8.541667E-04
-2.2256000000E+00,-1.029167E-03
-2.2251000000E+00,-7.312500E-04
-2.2246000000E+00,-4.833333E-04
-2.2241000000E+00,-7.166667E-04
-2.2236000000E+00,-9.520833E-04
-2.2231000000E+00,-1.072917E-03
-2.2226000000E+00,-1.050000E-03
-2.2221000000E+00,-6.333333E-04
-2.2216000000E+00,-7.187500E-04
-2.2211000000E+00,-1.095833E-03
-2.2206000000E+00,-1.197917E-03
-2.2201000000E+00,-9.958333E-04
-2.2196000000E+00,-9.500000E-04
-2.2191000000E+00,-9.020834E-04
-2.2186000000E+00,-1.054167E-03
-2.2181000000E+00,-1.314583E-03
-2.2176000000E+00,-1.170833E-03
-2.2171000000E+00,-8.604167E-04
-2.2166000000E+00,-1.064583E-03
-2.2161000000E+00,-1.114583E-03
-2.2156000000E+00,-8.312500E-04
-2.2151000000E+00,-1.275000E-03
-2.2146000000E+00,-1.450000E-03
-2.2141000000E+00,-1.152083E-03
-2.2136000000E+00,-1.066667E-03
-2.2131000000E+00,-1.535417E-03
-2.2126000000E+00,-1.312500E-03
-2.2121000000E+00,-1.358333E-03
-2.2116000000E+00,-1.275000E-03
-2.2111000000E+00,-9.541667E-04
-2.2106000000E+00,-9.937501E-04
-2.2101000000E+00,-1.035417E-03
-2.2096000000E+00,-8.104167E-04
-2.2091000000E+00,-1.283333E-03
-2.2086000000E+00,-1.177083E-03
-2.2081000000E+00,-1.206250E-03
-2.2076000000E+00,-1.004167E-03
-2.2071000000E+00,-9.750000E-04
-2.2066000000E+00,-1.064583E-03
-2.2061000000E+00,-1.091667E-03
-2.2056000000E+00,-8.645834E-04
-2.2051000000E+00,-6.666667E-04
-2.2046000000E+00,-4.208333E-04
-2.2041000000E+00,-8.354167E-04
-2.2036000000E+00,-8.833333E-04
-2.2031000000E+00,-1.102083E-03
-2.2026000000E+00,-9.708334E-04
-2.2021000000E+00,-9.583334E-04
-2.2016000000E+00,-6.104167E-04
-2.2011000000E+00,-8.416667E-04
-2.2006000000E+00,-8.250000E-04
-2.2001000000E+00,-9.250000E-04
-2.1996000000E+00,-2.958333E-04
-2.1991000000E+00,-2.979167E-04
-2.1986000000E+00,-6.333333E-04
-2.1981000000E+00,-5.604167E-04
-2.1976000000E+00,-5.000000E-04
-2.1971000000E+00,-4.312500E-04
-2.1966000000E+00,-5.208333E-05
-2.1961000000E+00,-3.020833E-04
-2.1956000000E+00,-1.895833E-04
