usr_wf_C1_data.csv

Record Length,Analog:200000
Sample Interval,1.000000E-04
Vertical Units,V,
Vertical Scale,+5.000000E-03
Vertical Offset,-2.500000E-04
Horizontal Units,s
Horizontal Scale,+2.000000E+00
Model,SDS814X HD
Serial Number,SDS08A0Q808352
Software Version,3.8.12.1.1.3.8
Source,CH1
Second,Value
-1.0000000000E+01,-1.666667E-04
-9.9999000000E+00,-1.354166E-04
-9.9998000000E+00,+2.083335E-05
-9.9997000000E+00,-5.208332E-05
-9.9996000000E+00,-9.374999E-05
-9.9995000000E+00,+1.455192E-11
-9.9994000000E+00,+2.083335E-05
-9.9993000000E+00,+1.455192E-11
-9.9992000000E+00,+5.208335E-05
-9.9991000000E+00,+5.208335E-05
-9.9990000000E+00,+2.187500E-04
-9.9989000000E+00,+8.333335E-05
-9.9988000000E+00,+8.333335E-05
-9.9987000000E+00,+1.250000E-04
-9.9986000000E+00,+1.250000E-04
-9.9985000000E+00,+6.250001E-05
-9.9984000000E+00,+6.250001E-05
-9.9983000000E+00,+3.125001E-05
-9.9982000000E+00,-2.395833E-04
-9.9981000000E+00,-1.562500E-04
-9.9980000000E+00,-2.083332E-05
-9.9979000000E+00,-8.333332E-05
-9.9978000000E+00,-1.041667E-04
-9.9977000000E+00,-4.166665E-05
-9.9976000000E+00,-6.249998E-05
-9.9975000000E+00,-1.354166E-04
-9.9974000000E+00,-2.708333E-04
-9.9973000000E+00,-1.979167E-04
-9.9972000000E+00,-2.083333E-04
-9.9971000000E+00,-2.395833E-04
-9.9970000000E+00,-1.666667E-04
-9.9969000000E+00,-1.354166E-04
-9.9968000000E+00,+1.041668E-05
-9.9967000000E+00,-1.875000E-04
-9.9966000000E+00,-3.333333E-04
-9.9965000000E+00,-3.020833E-04
-9.9964000000E+00,-6.249998E-05
-9.9963000000E+00,-7.291665E-05
-9.9962000000E+00,-2.708333E-04
-9.9961000000E+00,+6.250001E-05
-9.9960000000E+00,+2.291667E-04
-9.9959000000E+00,+1.666667E-04
-9.9958000000E+00,+1.250000E-04
-9.9957000000E+00,+1.875000E-04
-9.9956000000E+00,+3.125000E-04
-9.9955000000E+00,-4.166665E-05
-9.9954000000E+00,+1.455192E-11
-9.9953000000E+00,+1.041668E-05
-9.9952000000E+00,-1.041665E-05
-9.9951000000E+00,-2.187500E-04
-9.9950000000E+00,-2.083332E-05
-9.9949000000E+00,-1.354166E-04
-9.9948000000E+00,+1.455192E-11
-9.9947000000E+00,-8.333332E-05
-9.9946000000E+00,-3.333333E-04
-9.9945000000E+00,-1.458333E-04
-9.9944000000E+00,-2.604167E-04
-9.9943000000E+00,-2.916667E-04
-9.9942000000E+00,-1.250000E-04
-9.9941000000E+00,-1.770833E-04
-9.9940000000E+00,-1.666667E-04
-9.9939000000E+00,-3.437500E-04
-9.9938000000E+00,-1.666667E-04
-9.9937000000E+00,-1.354166E-04
-9.9936000000E+00,-1.145833E-04
-9.9935000000E+00,+1.041668E-05
-9.9934000000E+00,-8.333332E-05
-9.9933000000E+00,-1.145833E-04
-9.9932000000E+00,+2.083335E-05
-9.9931000000E+00,+5.208335E-05
-9.9930000000E+00,-1.041665E-05
-9.9929000000E+00,+1.041667E-04
-9.9928000000E+00,+2.083335E-05
-9.9927000000E+00,+1.666667E-04
-9.9926000000E+00,+1.770833E-04
-9.9925000000E+00,+5.208335E-05
-9.9924000000E+00,+3.750000E-04
-9.9923000000E+00,+2.812500E-04
-9.9922000000E+00,+1.250000E-04
-9.9921000000E+00,+1.455192E-11
-9.9920000000E+00,+7.291668E-05
-9.9919000000E+00,-1.041665E-05
-9.9918000000E+00,-9.374999E-05
-9.9917000000E+00,-3.124998E-05
-9.9916000000E+00,-6.249998E-05
-9.9915000000E+00,-6.249998E-05
-9.9914000000E+00,-2.604167E-04
-9.9913000000E+00,-1.770833E-04
-9.9912000000E+00,-7.291665E-05
-9.9911000000E+00,-2.812500E-04
-9.9910000000E+00,-1.875000E-04
-9.9909000000E+00,-1.250000E-04
-9.9908000000E+00,-2.500000E-04
-9.9907000000E+00,-5.208332E-05
-9.9906000000E+00,-2.291666E-04
-9.9905000000E+00,-1.875000E-04
-9.9904000000E+00,-2.083332E-05
-9.9903000000E+00,+2.083335E-05
-9.9902000000E+00,+4.166668E-05
-9.9901000000E+00,+8.333335E-05
-9.9900000000E+00,-1.979167E-04
-9.9899000000E+00,+1.562500E-04
-9.9898000000E+00,+2.083333E-04
-9.9897000000E+00,+1.458333E-04
-9.9896000000E+00,+8.333335E-05
-9.9895000000E+00,+3.229167E-04
-9.9894000000E+00,+7.291668E-05
-9.9893000000E+00,+8.333335E-05
-9.9892000000E+00,+7.291668E-05
-9.9891000000E+00,+2.604167E-04
-9.9890000000E+00,+3.020834E-04
-9.9889000000E+00,+8.333335E-05
-9.9888000000E+00,-4.166665E-05
-9.9887000000E+00,-6.249998E-05
-9.9886000000E+00,-1.041667E-04
-9.9885000000E+00,-1.041667E-04
-9.9884000000E+00,-7.291665E-05
-9.9883000000E+00,+2.083335E-05
-9.9882000000E+00,-1.666667E-04
-9.9881000000E+00,-2.187500E-04
-9.9880000000E+00,-2.812500E-04
-9.9879000000E+00,-2.291666E-04
-9.9878000000E+00,-7.291665E-05
-9.9877000000E+00,-1.979167E-04
-9.9876000000E+00,-1.458333E-04
-9.9875000000E+00,-4.166665E-05
-9.9874000000E+00,-1.979167E-04
-9.9873000000E+00,+4.062500E-04
-9.9872000000E+00,+9.375002E-05
-9.9871000000E+00,-6.249998E-05
-9.9870000000E+00,-1.562500E-04
-9.9869000000E+00,-1.770833E-04
-9.9868000000E+00,-8.333332E-05
-9.9867000000E+00,-2.083332E-05
-9.9866000000E+00,+1.250000E-04
-9.9865000000E+00,+3.125001E-05
-9.9864000000E+00,-1.354166E-04
-9.9863000000E+00,+1.354167E-04
-9.9862000000E+00,+1.250000E-04
-9.9861000000E+00,+2.083335E-05
-9.9860000000E+00,-5.208332E-05
-9.9859000000E+00,-2.083332E-05
-9.9858000000E+00,-3.124998E-05
-9.9857000000E+00,-1.875000E-04
-9.9856000000E+00,-1.145833E-04
-9.9855000000E+00,-1.458333E-04
-9.9854000000E+00,+1.979167E-04
-9.9853000000E+00,+9.375002E-05
-9.9852000000E+00,-1.145833E-04
-9.9851000000E+00,-2.604167E-04
-9.9850000000E+00,-1.562500E-04
-9.9849000000E+00,-7.291665E-05
-9.9848000000E+00,-2.500000E-04
-9.9847000000E+00,-1.562500E-04
-9.9846000000E+00,-1.979167E-04
-9.9845000000E+00,+1.455192E-11
-9.9844000000E+00,-1.458333E-04
-9.9843000000E+00,-2.395833E-04
-9.9842000000E+00,-2.083333E-04
-9.9841000000E+00,-7.291665E-05
-9.9840000000E+00,-9.374999E-05
-9.9839000000E+00,-3.854166E-04
-9.9838000000E+00,+5.208335E-05
-9.9837000000E+00,+1.562500E-04
-9.9836000000E+00,+6.250001E-05
-9.9835000000E+00,+2.083335E-05
-9.9834000000E+00,-5.208332E-05
-9.9833000000E+00,+6.250001E-05
-9.9832000000E+00,+9.375002E-05
-9.9831000000E+00,+3.229167E-04
-9.9830000000E+00,+1.666667E-04
-9.9829000000E+00,+2.500000E-04
-9.9828000000E+00,+1.250000E-04
-9.9827000000E+00,+1.250000E-04
-9.9826000000E+00,-6.249998E-05
-9.9825000000E+00,+1.979167E-04
-9.9824000000E+00,+1.875000E-04
-9.9823000000E+00,-2.708333E-04
-9.9822000000E+00,-8.333332E-05
-9.9821000000E+00,-1.354166E-04
-9.9820000000E+00,-2.708333E-04
-9.9819000000E+00,-6.249998E-05
-9.9818000000E+00,-8.333332E-05
-9.9817000000E+00,-1.979167E-04
-9.9816000000E+00,-9.374999E-05
-9.9815000000E+00,+3.125001E-05
-9.9814000000E+00,-1.041667E-04
-9.9813000000E+00,-2.604167E-04
-9.9812000000E+00,+1.041668E-05
-9.9811000000E+00,-2.187500E-04
-9.9810000000E+00,-6.249998E-05
-9.9809000000E+00,-1.354166E-04
-9.9808000000E+00,-1.875000E-04
-9.9807000000E+00,-1.875000E-04
-9.9806000000E+00,-1.979167E-04
-9.9805000000E+00,+8.333335E-05
-9.9804000000E+00,+3.125001E-05
-9.9803000000E+00,+6.250001E-05
-9.9802000000E+00,+2.083333E-04
-9.9801000000E+00,+3.437500E-04
-9.9800000000E+00,-3.124998E-05
-9.9799000000E+00,+4.166668E-05
-9.9798000000E+00,+9.375002E-05
-9.9797000000E+00,+1.562500E-04
-9.9796000000E+00,+1.875000E-04
-9.9795000000E+00,+1.455192E-11
-9.9794000000E+00,-4.166665E-05
-9.9793000000E+00,-3.124998E-05
-9.9792000000E+00,+1.041667E-04
-9.9791000000E+00,-8.333332E-05
-9.9790000000E+00,-1.562500E-04
-9.9789000000E+00,+7.291668E-05
-9.9788000000E+00,-2.083333E-04
-9.9787000000E+00,-4.166665E-05
-9.9786000000E+00,-3.020833E-04
-9.9785000000E+00,+4.166668E-05
-9.9784000000E+00,-1.250000E-04
-9.9783000000E+00,+8.333335E-05
-9.9782000000E+00,-2.916667E-04
-9.9781000000E+00,-1.666667E-04
-9.9780000000E+00,-8.333332E-05
-9.9779000000E+00,-1.354166E-04
-9.9778000000E+00,-1.250000E-04
-9.9777000000E+00,-1.458333E-04
-9.9776000000E+00,-1.354166E-04
-9.9775000000E+00,+3.125000E-04
-9.9774000000E+00,-2.812500E-04
-9.9773000000E+00,-6.249998E-05
-9.9772000000E+00,-1.041667E-04
-9.9771000000E+00,+7.291668E-05
-9.9770000000E+00,+2.083335E-05
-9.9769000000E+00,-3.124998E-05
-9.9768000000E+00,+3.125001E-05
-9.9767000000E+00,+2.395833E-04
-9.9766000000E+00,+1.041668E-05
-9.9765000000E+00,+1.041667E-04
-9.9764000000E+00,-1.041665E-05
-9.9763000000E+00,+1.354167E-04
-9.9762000000E+00,+5.208335E-05
-9.9761000000E+00,+4.166668E-05
-9.9760000000E+00,-4.166665E-05
-9.9759000000E+00,-1.354166E-04
-9.9758000000E+00,-5.208332E-05
-9.9757000000E+00,-5.208332E-05
-9.9756000000E+00,-1.979167E-04
-9.9755000000E+00,-9.374999E-05
-9.9754000000E+00,-2.083333E-04
-9.9753000000E+00,-9.374999E-05
-9.9752000000E+00,-9.374999E-05
-9.9751000000E+00,+1.455192E-11
-9.9750000000E+00,-2.187500E-04
-9.9749000000E+00,-1.875000E-04
-9.9748000000E+00,-1.770833E-04
-9.9747000000E+00,-1.354166E-04
-9.9746000000E+00,-1.666667E-04
-9.9745000000E+00,-1.250000E-04
-9.9744000000E+00,+5.208335E-05
-9.9743000000E+00,-8.333332E-05
-9.9742000000E+00,-5.208332E-05
-9.9741000000E+00,-4.166665E-05
-9.9740000000E+00,-1.770833E-04
-9.9739000000E+00,-3.124998E-05
-9.9738000000E+00,+3.125001E-05
-9.9737000000E+00,-1.041665E-05
-9.9736000000E+00,+1.458333E-04
-9.9735000000E+00,-4.166665E-05
-9.9734000000E+00,+2.083335E-05
-9.9733000000E+00,+1.354167E-04
-9.9732000000E+00,+2.500000E-04
-9.9731000000E+00,-3.124998E-05
-9.9730000000E+00,-1.666667E-04
-9.9729000000E+00,+1.250000E-04
-9.9728000000E+00,+3.125001E-05
-9.9727000000E+00,-1.041667E-04
-9.9726000000E+00,-9.374999E-05
-9.9725000000E+00,-1.979167E-04
-9.9724000000E+00,-2.187500E-04
-9.9723000000E+00,-3.125000E-04
-9.9722000000E+00,-4.166665E-05
-9.9721000000E+00,-8.333332E-05
-9.9720000000E+00,-2.812500E-04
-9.9719000000E+00,+1.041668E-05
-9.9718000000E+00,-2.500000E-04
-9.9717000000E+00,-1.250000E-04
-9.9716000000E+00,-8.333332E-05
-9.9715000000E+00,+9.375002E-05
-9.9714000000E+00,-1.770833E-04
-9.9713000000E+00,-1.875000E-04
-9.9712000000E+00,-3.124998E-05
-9.9711000000E+00,+1.145833E-04
-9.9710000000E+00,+2.083333E-04
-9.9709000000E+00,+1.666667E-04
-9.9708000000E+00,+4.166668E-05
-9.9707000000E+00,+8.333335E-05
-9.9706000000E+00,+1.145833E-04
-9.9705000000E+00,+7.291668E-05
-9.9704000000E+00,+1.041667E-04
-9.9703000000E+00,+5.208335E-05
-9.9702000000E+00,+1.354167E-04
-9.9701000000E+00,+1.041668E-05
-9.9700000000E+00,-6.249998E-05
-9.9699000000E+00,+4.166668E-05
-9.9698000000E+00,+2.083335E-05
-9.9697000000E+00,+1.455192E-11
-9.9696000000E+00,-2.395833E-04
-9.9695000000E+00,-1.562500E-04
-9.9694000000E+00,-6.249998E-05
-9.9693000000E+00,-1.666667E-04
-9.9692000000E+00,-2.812500E-04
-9.9691000000E+00,-9.374999E-05
-9.9690000000E+00,-2.083332E-05
-9.9689000000E+00,-2.500000E-04
-9.9688000000E+00,-2.916667E-04
-9.9687000000E+00,-2.708333E-04
-9.9686000000E+00,-1.770833E-04
-9.9685000000E+00,-2.291666E-04
-9.9684000000E+00,+7.291668E-05
-9.9683000000E+00,-4.166665E-05
-9.9682000000E+00,+8.333335E-05
-9.9681000000E+00,+1.145833E-04
-9.9680000000E+00,-3.124998E-05
-9.9679000000E+00,-1.562500E-04
-9.9678000000E+00,+4.166668E-05
-9.9677000000E+00,+4.166668E-05
-9.9676000000E+00,+1.455192E-11
-9.9675000000E+00,+6.250001E-05
-9.9674000000E+00,-5.208332E-05
-9.9673000000E+00,-6.249998E-05
-9.9672000000E+00,+4.166668E-05
-9.9671000000E+00,+1.455192E-11
-9.9670000000E+00,+2.187500E-04
-9.9669000000E+00,+1.250000E-04
-9.9668000000E+00,+5.208335E-05
-9.9667000000E+00,+1.455192E-11
-9.9666000000E+00,+9.375002E-05
-9.9665000000E+00,-7.291665E-05
-9.9664000000E+00,-1.250000E-04
-9.9663000000E+00,-2.395833E-04
-9.9662000000E+00,-2.083332E-05
-9.9661000000E+00,-3.333333E-04
-9.9660000000E+00,-2.812500E-04
-9.9659000000E+00,-3.854166E-04
-9.9658000000E+00,+1.145833E-04
-9.9657000000E+00,-4.270833E-04
-9.9656000000E+00,-2.083333E-04
-9.9655000000E+00,-2.500000E-04
-9.9654000000E+00,-1.145833E-04
-9.9653000000E+00,+6.250001E-05
-9.9652000000E+00,-1.354166E-04
-9.9651000000E+00,-9.374999E-05
-9.9650000000E+00,+1.455192E-11
-9.9649000000E+00,+1.041668E-05
-9.9648000000E+00,+1.354167E-04
-9.9647000000E+00,+7.291668E-05
-9.9646000000E+00,+4.166668E-05
-9.9645000000E+00,+9.375002E-05
-9.9644000000E+00,+5.208335E-05
-9.9643000000E+00,+9.375002E-05
-9.9642000000E+00,+5.208335E-05
-9.9641000000E+00,+2.604167E-04
-9.9640000000E+00,+1.562500E-04
-9.9639000000E+00,+1.455192E-11
-9.9638000000E+00,+9.375002E-05
-9.9637000000E+00,-1.041667E-04
-9.9636000000E+00,-1.354166E-04
-9.9635000000E+00,+1.145833E-04
-9.9634000000E+00,-6.249998E-05
-9.9633000000E+00,-8.333332E-05
-9.9632000000E+00,-6.249998E-05
-9.9631000000E+00,-1.875000E-04
-9.9630000000E+00,-1.250000E-04
-9.9629000000E+00,-9.374999E-05
-9.9628000000E+00,-1.666667E-04
-9.9627000000E+00,-2.083333E-04
-9.9626000000E+00,-3.020833E-04
-9.9625000000E+00,+1.455192E-11
-9.9624000000E+00,-1.666667E-04
-9.9623000000E+00,-1.666667E-04
-9.9622000000E+00,-1.458333E-04
-9.9621000000E+00,-2.083332E-05
-9.9620000000E+00,-4.166665E-05
-9.9619000000E+00,-1.562500E-04
-9.9618000000E+00,-6.249998E-05
-9.9617000000E+00,+1.455192E-11
-9.9616000000E+00,+1.041668E-05
-9.9615000000E+00,-7.291665E-05
-9.9614000000E+00,+9.375002E-05
-9.9613000000E+00,+1.770833E-04
-9.9612000000E+00,+1.145833E-04
-9.9611000000E+00,-2.083332E-05
-9.9610000000E+00,+4.166668E-05
-9.9609000000E+00,+6.250001E-05
-9.9608000000E+00,+1.979167E-04
-9.9607000000E+00,-2.083332E-05
-9.9606000000E+00,+2.083335E-05
-9.9605000000E+00,+2.083333E-04
-9.9604000000E+00,+2.083333E-04
-9.9603000000E+00,+2.083335E-05
-9.9602000000E+00,+1.770833E-04
-9.9601000000E+00,+7.291668E-05
-9.9600000000E+00,-7.291665E-05
-9.9599000000E+00,+1.455192E-11
-9.9598000000E+00,-1.770833E-04
-9.9597000000E+00,-1.979167E-04
-9.9596000000E+00,-8.333332E-05
-9.9595000000E+00,-2.291666E-04
-9.9594000000E+00,-2.500000E-04
-9.9593000000E+00,-2.083333E-04
-9.9592000000E+00,-2.916667E-04
-9.9591000000E+00,-2.708333E-04
-9.9590000000E+00,-3.124998E-05
-9.9589000000E+00,-8.333332E-05
-9.9588000000E+00,-1.875000E-04
-9.9587000000E+00,-4.166665E-05
-9.9586000000E+00,+1.041667E-04
-9.9585000000E+00,+2.708333E-04
-9.9584000000E+00,-1.041665E-05
-9.9583000000E+00,+1.666667E-04
-9.9582000000E+00,+7.291668E-05
-9.9581000000E+00,+1.455192E-11
-9.9580000000E+00,-3.125000E-04
-9.9579000000E+00,+1.250000E-04
-9.9578000000E+00,+6.250001E-05
-9.9577000000E+00,+1.666667E-04
-9.9576000000E+00,+5.208335E-05
-9.9575000000E+00,+8.333335E-05
-9.9574000000E+00,-1.979167E-04
-9.9573000000E+00,+9.375002E-05
-9.9572000000E+00,-1.041667E-04
-9.9571000000E+00,-3.124998E-05
-9.9570000000E+00,-1.979167E-04
-9.9569000000E+00,+1.666667E-04
-9.9568000000E+00,-9.374999E-05
-9.9567000000E+00,-2.083333E-04
-9.9566000000E+00,-5.208332E-05
-9.9565000000E+00,-1.979167E-04
-9.9564000000E+00,-1.562500E-04
-9.9563000000E+00,-2.500000E-04
-9.9562000000E+00,-1.354166E-04
-9.9561000000E+00,-1.458333E-04
-9.9560000000E+00,-4.895833E-04
-9.9559000000E+00,+1.041667E-04
-9.9558000000E+00,-2.604167E-04
-9.9557000000E+00,-2.916667E-04
-9.9556000000E+00,-7.291665E-05
-9.9555000000E+00,-3.125000E-04
-9.9554000000E+00,-9.374999E-05
-9.9553000000E+00,+4.791667E-04
-9.9552000000E+00,+1.041668E-05
-9.9551000000E+00,+4.166668E-05
-9.9550000000E+00,+2.916667E-04
-9.9549000000E+00,+1.458333E-04
-9.9548000000E+00,+2.083333E-04
-9.9547000000E+00,+1.250000E-04
-9.9546000000E+00,+3.750000E-04
-9.9545000000E+00,+1.770833E-04
-9.9544000000E+00,+5.208335E-05
-9.9543000000E+00,-6.249998E-05
-9.9542000000E+00,+2.812500E-04
-9.9541000000E+00,-5.208332E-05
-9.9540000000E+00,+2.083335E-05
-9.9539000000E+00,-2.083333E-04
-9.9538000000E+00,-6.249998E-05
-9.9537000000E+00,-1.354166E-04
-9.9536000000E+00,-1.250000E-04
-9.9535000000E+00,-1.145833E-04
-9.9534000000E+00,-1.458333E-04
-9.9533000000E+00,-1.979167E-04
-9.9532000000E+00,-2.291666E-04
-9.9531000000E+00,-3.541666E-04
-9.9530000000E+00,-1.770833E-04
-9.9529000000E+00,+3.125001E-05
-9.9528000000E+00,-2.083332E-05
-9.9527000000E+00,+1.041668E-05
-9.9526000000E+00,-9.374999E-05
-9.9525000000E+00,+3.125001E-05
-9.9524000000E+00,+2.083335E-05
-9.9523000000E+00,-4.166665E-05
-9.9522000000E+00,-9.374999E-05
-9.9521000000E+00,+5.208335E-05
-9.9520000000E+00,-8.333332E-05
-9.9519000000E+00,-1.250000E-04
-9.9518000000E+00,+1.562500E-04
-9.9517000000E+00,+1.562500E-04
-9.9516000000E+00,+7.291668E-05
-9.9515000000E+00,+2.395833E-04
-9.9514000000E+00,+1.875000E-04
-9.9513000000E+00,+1.041667E-04
-9.9512000000E+00,+2.187500E-04
-9.9511000000E+00,+7.291668E-05
-9.9510000000E+00,-1.041665E-05
-9.9509000000E+00,-8.333332E-05
-9.9508000000E+00,-1.145833E-04
-9.9507000000E+00,-1.041665E-05
-9.9506000000E+00,-1.875000E-04
-9.9505000000E+00,-1.875000E-04
-9.9504000000E+00,-6.249998E-05
-9.9503000000E+00,-2.083333E-04
-9.9502000000E+00,-1.354166E-04
-9.9501000000E+00,-2.916667E-04
-9.9500000000E+00,-1.770833E-04
-9.9499000000E+00,-2.291666E-04
-9.9498000000E+00,-1.875000E-04
-9.9497000000E+00,-3.124998E-05
-9.9496000000E+00,-4.375000E-04
-9.9495000000E+00,-1.145833E-04
-9.9494000000E+00,-2.187500E-04
-9.9493000000E+00,+1.041668E-05
-9.9492000000E+00,+4.166668E-05
-9.9491000000E+00,-5.208332E-05
-9.9490000000E+00,+3.125001E-05
-9.9489000000E+00,+8.333335E-05
-9.9488000000E+00,+4.166668E-05
-9.9487000000E+00,+1.354167E-04
-9.9486000000E+00,+2.604167E-04
-9.9485000000E+00,+1.041667E-04
-9.9484000000E+00,+1.145833E-04
-9.9483000000E+00,-2.083332E-05
-9.9482000000E+00,+1.666667E-04
-9.9481000000E+00,+1.562500E-04
-9.9480000000E+00,-3.020833E-04
-9.9479000000E+00,-3.124998E-05
-9.9478000000E+00,+1.354167E-04
-9.9477000000E+00,+8.333335E-05
-9.9476000000E+00,-3.124998E-05
-9.9475000000E+00,-1.041665E-05
-9.9474000000E+00,-3.958333E-04
-9.9473000000E+00,-1.666667E-04
-9.9472000000E+00,+1.041668E-05
-9.9471000000E+00,-1.770833E-04
-9.9470000000E+00,-1.875000E-04
-9.9469000000E+00,-3.854166E-04
-9.9468000000E+00,-1.666667E-04
-9.9467000000E+00,-2.187500E-04
-9.9466000000E+00,-9.374999E-05
-9.9465000000E+00,-2.395833E-04
-9.9464000000E+00,-2.291666E-04
-9.9463000000E+00,+6.250001E-05
-9.9462000000E+00,+3.125001E-05
-9.9461000000E+00,+6.250001E-05
-9.9460000000E+00,-6.249998E-05
-9.9459000000E+00,+2.083333E-04
-9.9458000000E+00,+1.041667E-04
-9.9457000000E+00,+1.041667E-04
-9.9456000000E+00,+8.333335E-05
-9.9455000000E+00,+6.250001E-05
-9.9454000000E+00,+8.333335E-05
-9.9453000000E+00,+1.458333E-04
-9.9452000000E+00,+8.333335E-05
-9.9451000000E+00,+1.354167E-04
-9.9450000000E+00,+1.041667E-04
-9.9449000000E+00,-1.041665E-05
-9.9448000000E+00,+2.708333E-04
-9.9447000000E+00,-2.604167E-04
-9.9446000000E+00,-4.166665E-05
-9.9445000000E+00,+2.083335E-05
-9.9444000000E+00,+2.083335E-05
-9.9443000000E+00,-1.562500E-04
-9.9442000000E+00,+8.333335E-05
-9.9441000000E+00,-1.562500E-04
-9.9440000000E+00,-1.145833E-04
-9.9439000000E+00,-1.979167E-04
-9.9438000000E+00,-3.020833E-04
-9.9437000000E+00,-2.604167E-04
-9.9436000000E+00,-2.916667E-04
-9.9435000000E+00,-2.083333E-04
-9.9434000000E+00,-1.145833E-04
-9.9433000000E+00,-7.291665E-05
-9.9432000000E+00,-3.541666E-04
-9.9431000000E+00,-1.354166E-04
-9.9430000000E+00,-2.083332E-05
-9.9429000000E+00,+1.041668E-05
-9.9428000000E+00,+1.041667E-04
-9.9427000000E+00,+4.166668E-05
-9.9426000000E+00,+1.354167E-04
-9.9425000000E+00,+7.291668E-05
-9.9424000000E+00,+9.375002E-05
-9.9423000000E+00,+1.875000E-04
-9.9422000000E+00,+2.083333E-04
-9.9421000000E+00,+1.041668E-05
-9.9420000000E+00,+9.375002E-05
-9.9419000000E+00,+1.455192E-11
-9.9418000000E+00,+1.455192E-11
-9.9417000000E+00,+1.770833E-04
-9.9416000000E+00,+1.145833E-04
-9.9415000000E+00,+1.455192E-11
-9.9414000000E+00,-4.166665E-05
-9.9413000000E+00,-1.041665E-05
-9.9412000000E+00,-1.562500E-04
-9.9411000000E+00,-3.124998E-05
-9.9410000000E+00,+3.125001E-05
-9.9409000000E+00,-3.020833E-04
-9.9408000000E+00,-6.249998E-05
-9.9407000000E+00,-1.041665E-05
-9.9406000000E+00,-1.145833E-04
-9.9405000000E+00,-8.333332E-05
-9.9404000000E+00,-7.291665E-05
-9.9403000000E+00,-1.979167E-04
-9.9402000000E+00,-1.354166E-04
-9.9401000000E+00,-1.354166E-04
-9.9400000000E+00,-6.249998E-05
-9.9399000000E+00,-1.145833E-04
-9.9398000000E+00,-1.041667E-04
-9.9397000000E+00,+4.166668E-05
-9.9396000000E+00,-1.041665E-05
-9.9395000000E+00,+1.770833E-04
-9.9394000000E+00,+3.125001E-05
-9.9393000000E+00,+1.354167E-04
-9.9392000000E+00,+7.291668E-05
-9.9391000000E+00,+1.354167E-04
-9.9390000000E+00,+1.666667E-04
-9.9389000000E+00,+1.458333E-04
-9.9388000000E+00,+6.250001E-05
-9.9387000000E+00,+9.375002E-05
-9.9386000000E+00,+3.125001E-05
-9.9385000000E+00,+1.145833E-04
